<?xml version="1.0" encoding="UTF-8"?>
<session version="1.0">
<refactoring comment="Rename resource &apos;webservices/src/main/mule/webservices.xml&apos; to &apos;rest-ws.xml&apos;" description="Rename resource &apos;webservices.xml&apos;" flags="7" id="org.eclipse.ltk.core.refactoring.rename.resource" input="src/main/mule/webservices.xml" name="rest-ws.xml" stamp="1593625283344" updateReferences="true"/>
</session>